{
  "urn" : "local:alessio.bulckaen:training.southafrica:nca_southafrica_gadm36_zaf_0",
  "version" : "0.0.1",
  "adapterType" : "wfs",
  "localPath" : "training.southafrica/resources/nca_southafrica_gadm36_zaf_0",
  "geometry" : "#s2(1){bbox=[16.45189095 32.89125061 -34.83514023 -22.12503052],proj=EPSG:4326}",
  "projectName" : "training.southafrica",
  "localName" : "nca_southafrica_gadm36_zaf_0",
  "type" : "OBJECT",
  "resourceTimestamp" : 1629805738449,
  "metadata" : {
    "im:keywords" : "features,gadm36_zaf_0",
    "dc:title" : "gadm36_zaf_0"
  },
  "parameters" : {
    "serviceUrl" : "http://192.168.250.122:8600/geoserver/NCA_SouthAfrica/ows",
    "wfsVersion" : "1.0.0",
    "wfsIdentifier" : "NCA_SouthAfrica:gadm36_zaf_0"
  },
  "localPaths" : [ ],
  "history" : [ ],
  "notifications" : [ ],
  "attributes" : [ {
    "name" : "GID_0",
    "type" : "TEXT",
    "key" : false,
    "optional" : true,
    "exampleValue" : null,
    "index" : 0
  }, {
    "name" : "NAME_0",
    "type" : "TEXT",
    "key" : false,
    "optional" : true,
    "exampleValue" : null,
    "index" : 0
  } ],
  "spatialExtent" : {
    "east" : 32.89125061,
    "west" : 16.45189095,
    "north" : -22.12503052,
    "south" : -34.83514023,
    "gridResolution" : null,
    "gridUnit" : null
  },
  "dependencies" : null,
  "outputs" : null,
  "categorizables" : [ ],
  "exportFormats" : { }
}