{
  "urn" : "local:alessio.bulckaen:training.southafrica:nca_southafrica.wgs84_nlc14_t4.tif",
  "version" : "0.0.1",
  "adapterType" : "wcs",
  "localPath" : "training.southafrica/resources/nca_southafrica.wgs84_nlc14_t4.tif",
  "geometry" : "τ1{tend=1420070400000,tstart=1388534400000,ttype=logical}S2(18108,13304){bbox=[15.896145596476915 33.54602543844189 -34.921425325241216 -21.953748960044685],proj=EPSG:4326}",
  "projectName" : "training.southafrica",
  "localName" : "nca_southafrica.wgs84_nlc14_t4.tif",
  "type" : "NUMBER",
  "resourceTimestamp" : 1629746864439,
  "metadata" : {
    "im:keywords" : "",
    "dc:comment" : "",
    "im:notes" : "",
    "dc:title" : "",
    "dc:url" : "",
    "dc:creator" : "",
    "im:thematic-area" : "",
    "dc:originator" : "",
    "im:geographic-area" : "",
    "dc:source" : ""
  },
  "parameters" : {
    "wcsIdentifier" : "NCA_SouthAfrica__WGS84_nlc14_t4.tif",
    "transform" : "",
    "serviceUrl" : "http://192.168.250.122:8600/geoserver/NCA_SouthAfrica/wcs",
    "nodata" : "-999.0",
    "wcsVersion" : "2.0.1"
  },
  "localPaths" : [ ],
  "history" : [ ],
  "notifications" : [ ],
  "attributes" : [ ],
  "spatialExtent" : {
    "east" : 33.54602543844189,
    "west" : 15.896145596476915,
    "north" : -21.953748960044685,
    "south" : -34.921425325241216,
    "gridResolution" : null,
    "gridUnit" : null
  },
  "dependencies" : null,
  "outputs" : null,
  "categorizables" : [ ],
  "exportFormats" : { }
}