{
  "urn" : "local:amarquez:training.southafrica:nca_southafrica.deflp1_wgs84_nlc14_bsut4",
  "version" : "0.0.1",
  "adapterType" : "wcs",
  "localPath" : "training.southafrica/resources/nca_southafrica.deflp1_wgs84_nlc14_bsut4",
  "geometry" : "S2(23419,17276){bbox=[13.516941183280702 36.325170079555164 -36.64568198016939 -19.81998724742243],proj=EPSG:4326}",
  "projectName" : "training.southafrica",
  "localName" : "nca_southafrica.deflp1_wgs84_nlc14_bsut4",
  "type" : "NUMBER",
  "resourceTimestamp" : 1629812412800,
  "metadata" : { },
  "parameters" : {
    "wcsIdentifier" : "NCA_SouthAfrica__deflp1_wgs84_nlc14_bsut4",
    "transform" : "",
    "serviceUrl" : "http://192.168.250.122:8600/geoserver/NCA_SouthAfrica/wcs",
    "nodata" : "-999.0",
    "wcsVersion" : "2.0.1"
  },
  "localPaths" : [ ],
  "history" : [ ],
  "notifications" : [ ],
  "attributes" : [ ],
  "spatialExtent" : {
    "east" : 36.325170079555164,
    "west" : 13.516941183280702,
    "north" : -19.81998724742243,
    "south" : -36.64568198016939,
    "gridResolution" : null,
    "gridUnit" : null
  },
  "dependencies" : null,
  "outputs" : null,
  "categorizables" : [ ],
  "exportFormats" : { }
}